%YAML 1.1
%TAG !u! tag:unity3d.com,2011:
--- !u!162 &1
EditorUserSettings:
  m_ObjectHideFlags: 0
  serializedVersion: 4
  m_ConfigSettings:
    RecentlyUsedScenePath-0:
      value: 224247031146467f223a1b27152d1f350e16153a202d357f1e2c0c26e7ee373df1a923e7ee2e26
      flags: 0
    RecentlyUsedScenePath-1:
      value: 224247031146467f223a1b27152d1f350e16153a202d357f0e3c0e27eded0434f7e03fe7a71f273d3412e3394b1d142ce605043bfa1e0d021f2be50f1cef1c165fd016cc0ed1
      flags: 0
    RecentlyUsedScenePath-2:
      value: 224247031146467f223a1b27152d1f350e16153a202d357f180e281aacf53a31f6fe
      flags: 0
    RecentlyUsedScenePath-3:
      value: 224247031146467f223a1b27152d1f350e16153a202d357f1d28093bf1ae2136ebf32f
      flags: 0
    RecentlyUsedScenePath-4:
      value: 224247031146467f223a1b27152d1f350e16153a202d357f00280936f0e93534f1a923e7ee2e26
      flags: 0
    RecentlyUsedScenePath-5:
      value: 224247031146467f223a1b27152d1f350e16153a202d357f0b26113fedf77a2decee22f0
      flags: 0
    RecentlyUsedScenePath-6:
      value: 224247031146467f223a1b27152d1f350e16153a202d357f0f280e3ae1f37a2decee22f0
      flags: 0
    RecentlyUsedScenePath-7:
      value: 22424703114646790414192e1b226f0219130d293821293e621a093ae1eb3939eca806fbe23c3e3e2a4ddc3f0130042cbd390806e6070f38120bf30b5fea1e1a05dc
      flags: 0
    RecentlyUsedScenePath-8:
      value: 22424703114646680e0b0227036c6c111b07142f1f2b233e2867083debf42d
      flags: 0
    RecentlyUsedScenePath-9:
      value: 22424703114646680e0b0227036c78111b12496439262f2434
      flags: 0
    vcSharedLogLevel:
      value: 0d5e400f0650
      flags: 0
  m_VCAutomaticAdd: 1
  m_VCDebugCom: 0
  m_VCDebugCmd: 0
  m_VCDebugOut: 0
  m_SemanticMergeMode: 2
  m_VCShowFailedCheckout: 1
  m_VCOverwriteFailedCheckoutAssets: 1
  m_VCProjectOverlayIcons: 1
  m_VCHierarchyOverlayIcons: 1
  m_VCOtherOverlayIcons: 1
  m_VCAllowAsyncUpdate: 0
